01_basics/09_regfile/vcd/regfile_2r1w.vcd
$date
	Tue May  7 16:41:56 2024
$end
$version
	Icarus Verilog
$end
$timescale
	1ps
$end
$scope module regfile_2r1w_tb $end
$var wire 32 ! o_rd_data1 [31:0] $end
$var wire 32 " o_rd_data0 [31:0] $end
$var reg 1 # i_clk $end
$var reg 5 $ i_rd_addr0 [4:0] $end
$var reg 5 % i_rd_addr1 [4:0] $end
$var reg 1 & i_rstn $end
$var reg 5 ' i_wr_addr [4:0] $end
$var reg 32 ( i_wr_data [31:0] $end
$var reg 1 ) i_wr_en $end
$var reg 256 * vcd_file [255:0] $end
$var integer 32 + i [31:0] $end
$scope module u_regfile_2r1w $end
$var wire 1 # i_clk $end
$var wire 5 , i_rd_addr0 [4:0] $end
$var wire 5 - i_rd_addr1 [4:0] $end
$var wire 1 & i_rstn $end
$var wire 5 . i_wr_addr [4:0] $end
$var wire 32 / i_wr_data [31:0] $end
$var wire 1 ) i_wr_en $end
$var wire 32 0 o_rd_data0 [31:0] $end
$var wire 32 1 o_rd_data1 [31:0] $end
$upscope $end
$scope task init $end
$upscope $end
$scope task regRD $end
$var reg 5 2 ti_rd_addr0 [4:0] $end
$var reg 5 3 ti_rd_addr1 [4:0] $end
$upscope $end
$scope task regWR $end
$var reg 5 4 ti_wr_addr [4:0] $end
$var reg 32 5 ti_wr_data [31:0] $end
$upscope $end
$scope task resetReleaseAfterNCycles $end
$var reg 10 6 n [9:0] $end
$upscope $end
$upscope $end
$enddefinitions $end
#0
$dumpvars
b100 6
bx 5
bx 4
bx 3
bx 2
bx 1
bx 0
b0 /
b0 .
b0 -
b0 ,
bx +
b101110001011110111011001100011011001000010111101110010011001010110011101100110011010010110110001100101010111110011001001110010001100010111011100101110011101100110001101100100 *
0)
b0 (
b0 '
0&
b0 %
b0 $
0#
bx "
bx !
$end
#5000
b0 "
b0 0
b0 !
b0 1
1#
#10000
0#
#15000
1#
#20000
0#
#25000
1#
#30000
0#
#35000
1#
#40000
1)
0#
b0 5
b0 4
b0 +
1&
#45000
1#
#50000
b1 '
b1 .
b1 (
b1 /
0#
b1 5
b1 4
b1 +
#55000
1#
#60000
b10 '
b10 .
b10 (
b10 /
0#
b10 5
b10 4
b10 +
#65000
1#
#70000
b11 '
b11 .
b11 (
b11 /
0#
b11 5
b11 4
b11 +
#75000
1#
#80000
b100 '
b100 .
b100 (
b100 /
0#
b100 5
b100 4
b100 +
#85000
1#
#90000
b101 '
b101 .
b101 (
b101 /
0#
b101 5
b101 4
b101 +
#95000
1#
#100000
b110 '
b110 .
b110 (
b110 /
0#
b110 5
b110 4
b110 +
#105000
1#
#110000
b111 '
b111 .
b111 (
b111 /
0#
b111 5
b111 4
b111 +
#115000
1#
#120000
b1000 '
b1000 .
b1000 (
b1000 /
0#
b1000 5
b1000 4
b1000 +
#125000
1#
#130000
b1001 '
b1001 .
b1001 (
b1001 /
0#
b1001 5
b1001 4
b1001 +
#135000
1#
#140000
b1010 '
b1010 .
b1010 (
b1010 /
0#
b1010 5
b1010 4
b1010 +
#145000
1#
#150000
b1011 '
b1011 .
b1011 (
b1011 /
0#
b1011 5
b1011 4
b1011 +
#155000
1#
#160000
b1100 '
b1100 .
b1100 (
b1100 /
0#
b1100 5
b1100 4
b1100 +
#165000
1#
#170000
b1101 '
b1101 .
b1101 (
b1101 /
0#
b1101 5
b1101 4
b1101 +
#175000
1#
#180000
b1110 '
b1110 .
b1110 (
b1110 /
0#
b1110 5
b1110 4
b1110 +
#185000
1#
#190000
b1111 '
b1111 .
b1111 (
b1111 /
0#
b1111 5
b1111 4
b1111 +
#195000
1#
#200000
b10000 '
b10000 .
b10000 (
b10000 /
0#
b10000 5
b10000 4
b10000 +
#205000
1#
#210000
b10001 '
b10001 .
b10001 (
b10001 /
0#
b10001 5
b10001 4
b10001 +
#215000
1#
#220000
b10010 '
b10010 .
b10010 (
b10010 /
0#
b10010 5
b10010 4
b10010 +
#225000
1#
#230000
b10011 '
b10011 .
b10011 (
b10011 /
0#
b10011 5
b10011 4
b10011 +
#235000
1#
#240000
b10100 '
b10100 .
b10100 (
b10100 /
0#
b10100 5
b10100 4
b10100 +
#245000
1#
#250000
b10101 '
b10101 .
b10101 (
b10101 /
0#
b10101 5
b10101 4
b10101 +
#255000
1#
#260000
b10110 '
b10110 .
b10110 (
b10110 /
0#
b10110 5
b10110 4
b10110 +
#265000
1#
#270000
b10111 '
b10111 .
b10111 (
b10111 /
0#
b10111 5
b10111 4
b10111 +
#275000
1#
#280000
b11000 '
b11000 .
b11000 (
b11000 /
0#
b11000 5
b11000 4
b11000 +
#285000
1#
#290000
b11001 '
b11001 .
b11001 (
b11001 /
0#
b11001 5
b11001 4
b11001 +
#295000
1#
#300000
b11010 '
b11010 .
b11010 (
b11010 /
0#
b11010 5
b11010 4
b11010 +
#305000
1#
#310000
b11011 '
b11011 .
b11011 (
b11011 /
0#
b11011 5
b11011 4
b11011 +
#315000
1#
#320000
b11100 '
b11100 .
b11100 (
b11100 /
0#
b11100 5
b11100 4
b11100 +
#325000
1#
#330000
b11101 '
b11101 .
b11101 (
b11101 /
0#
b11101 5
b11101 4
b11101 +
#335000
1#
#340000
b11110 '
b11110 .
b11110 (
b11110 /
0#
b11110 5
b11110 4
b11110 +
#345000
1#
#350000
b11111 '
b11111 .
b11111 (
b11111 /
0#
b11111 5
b11111 4
b11111 +
#355000
1#
#360000
0)
b100 !
b100 1
b100 %
b100 -
b1001 "
b1001 0
b1001 $
b1001 ,
0#
b100 3
b1001 2
b0 +
#365000
1#
#370000
0#
#375000
1#
b11 3
b0 2
b1 +
#380000
b11 !
b11 1
b11 %
b11 -
b0 "
b0 0
b0 $
b0 ,
0#
#385000
1#
#390000
0#
#395000
1#
b1101 3
b1000 2
b10 +
#400000
b1101 !
b1101 1
b1101 %
b1101 -
b1000 "
b1000 0
b1000 $
b1000 ,
0#
#405000
1#
#410000
0#
#415000
1#
b0 3
b11 2
b11 +
#420000
b0 !
b0 1
b0 %
b0 -
b11 "
b11 0
b11 $
b11 ,
0#
#425000
1#
#430000
0#
#435000
1#
b1000 3
b1000 2
b100 +
#440000
b1000 !
b1000 1
b1000 %
b1000 -
b1000 "
b1000 0
b1000 $
b1000 ,
0#
#445000
1#
#450000
0#
#455000
1#
b1010 3
b1100 2
b101 +
#460000
b1010 !
b1010 1
b1010 %
b1010 -
b1100 "
b1100 0
b1100 $
b1100 ,
0#
#465000
1#
#470000
0#
#475000
1#
b1101 3
b10000 2
b110 +
#480000
b1101 !
b1101 1
b1101 %
b1101 -
b10000 "
b10000 0
b10000 $
b10000 ,
0#
#485000
1#
#490000
0#
#495000
1#
b110 3
b111 +
#500000
b110 !
b110 1
b110 %
b110 -
0#
#505000
1#
#510000
0#
#515000
1#
b101 3
b110 2
b1000 +
#520000
b101 !
b101 1
b101 %
b101 -
b110 "
b110 0
b110 $
b110 ,
0#
#525000
1#
#530000
0#
#535000
1#
b11 3
b10000 2
b1001 +
#540000
b11 !
b11 1
b11 %
b11 -
b10000 "
b10000 0
b10000 $
b10000 ,
0#
#545000
1#
#550000
0#
#555000
1#
b1101 3
b0 2
b1010 +
#560000
b1101 !
b1101 1
b1101 %
b1101 -
b0 "
b0 0
b0 $
b0 ,
0#
#565000
1#
#570000
0#
#575000
1#
b110 3
b10000 2
b1011 +
#580000
b110 !
b110 1
b110 %
b110 -
b10000 "
b10000 0
b10000 $
b10000 ,
0#
#585000
1#
#590000
0#
#595000
1#
b111 2
b1100 +
#600000
b111 "
b111 0
b111 $
b111 ,
0#
#605000
1#
#610000
0#
#615000
1#
b1011 2
b1101 +
#620000
b1011 "
b1011 0
b1011 $
b1011 ,
0#
#625000
1#
#630000
0#
#635000
1#
b11 3
b1 2
b1110 +
#640000
b11 !
b11 1
b11 %
b11 -
b1 "
b1 0
b1 $
b1 ,
0#
#645000
1#
#650000
0#
#655000
1#
b1000 3
b11 2
b1111 +
#660000
b1000 !
b1000 1
b1000 %
b1000 -
b11 "
b11 0
b11 $
b11 ,
0#
#665000
1#
#670000
0#
#675000
1#
b1001 3
b100 2
b10000 +
#680000
b1001 !
b1001 1
b1001 %
b1001 -
b100 "
b100 0
b100 $
b100 ,
0#
#685000
1#
#690000
0#
#695000
1#
b101 3
b1110 2
b10001 +
#700000
b101 !
b101 1
b101 %
b101 -
b1110 "
b1110 0
b1110 $
b1110 ,
0#
#705000
1#
#710000
0#
#715000
1#
b0 3
b100 2
b10010 +
#720000
b0 !
b0 1
b0 %
b0 -
b100 "
b100 0
b100 $
b100 ,
0#
#725000
1#
#730000
0#
#735000
1#
b10 3
b0 2
b10011 +
#740000
b10 !
b10 1
b10 %
b10 -
b0 "
b0 0
b0 $
b0 ,
0#
#745000
1#
#750000
0#
#755000
1#
b111 3
b1100 2
b10100 +
#760000
b111 !
b111 1
b111 %
b111 -
b1100 "
b1100 0
b1100 $
b1100 ,
0#
#765000
1#
#770000
0#
#775000
1#
b101 3
b0 2
b10101 +
#780000
b101 !
b101 1
b101 %
b101 -
b0 "
b0 0
b0 $
b0 ,
0#
#785000
1#
#790000
0#
#795000
1#
b110 3
b1001 2
b10110 +
#800000
b110 !
b110 1
b110 %
b110 -
b1001 "
b1001 0
b1001 $
b1001 ,
0#
#805000
1#
#810000
0#
#815000
1#
b1000 3
b10111 +
#820000
b1000 !
b1000 1
b1000 %
b1000 -
0#
#825000
1#
#830000
0#
#835000
1#
b10 3
b110 2
b11000 +
#840000
b10 !
b10 1
b10 %
b10 -
b110 "
b110 0
b110 $
b110 ,
0#
#845000
1#
#850000
0#
#855000
1#
b1101 3
b10000 2
b11001 +
#860000
b1101 !
b1101 1
b1101 %
b1101 -
b10000 "
b10000 0
b10000 $
b10000 ,
0#
#865000
1#
#870000
0#
#875000
1#
b111 3
b1010 2
b11010 +
#880000
b111 !
b111 1
b111 %
b111 -
b1010 "
b1010 0
b1010 $
b1010 ,
0#
#885000
1#
#890000
0#
#895000
1#
b100 3
b1100 2
b11011 +
#900000
b100 !
b100 1
b100 %
b100 -
b1100 "
b1100 0
b1100 $
b1100 ,
0#
#905000
1#
#910000
0#
#915000
1#
b1110 3
b10000 2
b11100 +
#920000
b1110 !
b1110 1
b1110 %
b1110 -
b10000 "
b10000 0
b10000 $
b10000 ,
0#
#925000
1#
#930000
0#
#935000
1#
b1111 2
b11101 +
#940000
b1111 "
b1111 0
b1111 $
b1111 ,
0#
#945000
1#
#950000
0#
#955000
1#
b1001 3
b110 2
b11110 +
#960000
b1001 !
b1001 1
b1001 %
b1001 -
b110 "
b110 0
b110 $
b110 ,
0#
#965000
1#
#970000
0#
#975000
1#
b11 3
b0 2
b11111 +
#980000
b11 !
b11 1
b11 %
b11 -
b0 "
b0 0
b0 $
b0 ,
0#
#985000
1#
#990000
0#
#995000
1#
b100000 +
