RV32I/testbench/vcd/slti.vcd
$version Generated by VerilatedVcd $end
$date Wed Aug 28 16:27:59 2024
 $end
$timescale   1ps $end

 $scope module TOP $end
  $var wire  1 |" i_clk $end
  $var wire  1 }" i_rstn $end
  $var wire 32 w" o_riscv_dmem_addr [31:0] $end
  $var wire 32 {" o_riscv_dmem_rd_data [31:0] $end
  $var wire  4 y" o_riscv_dmem_strb [3:0] $end
  $var wire 32 z" o_riscv_dmem_wr_data [31:0] $end
  $var wire  1 x" o_riscv_dmem_wr_en $end
  $var wire 32 v" o_riscv_imem_instr [31:0] $end
  $var wire 32 u" o_riscv_imem_pc [31:0] $end
  $scope module riscv_top $end
   $var wire 32 '# REGISTER_INIT [31:0] $end
   $var wire  1 |" i_clk $end
   $var wire  1 }" i_rstn $end
   $var wire 32 w" o_riscv_dmem_addr [31:0] $end
   $var wire 32 {" o_riscv_dmem_rd_data [31:0] $end
   $var wire  4 y" o_riscv_dmem_strb [3:0] $end
   $var wire 32 z" o_riscv_dmem_wr_data [31:0] $end
   $var wire  1 x" o_riscv_dmem_wr_en $end
   $var wire 32 v" o_riscv_imem_instr [31:0] $end
   $var wire 32 u" o_riscv_imem_pc [31:0] $end
   $scope module u_riscv_cpu $end
    $var wire 32 )# EX [31:0] $end
    $var wire 32 (# ID [31:0] $end
    $var wire 32 '# IF [31:0] $end
    $var wire 32 *# MM [31:0] $end
    $var wire 32 +# WB [31:0] $end
    $var wire 32 <! alu_a(2) [31:0] $end
    $var wire 32 =! alu_b(2) [31:0] $end
    $var wire  4 x alu_ctrl(2) [3:0] $end
    $var wire 32 ?! alu_out(3) [31:0] $end
    $var wire 32 @! alu_out(4) [31:0] $end
    $var wire  1 E! flush(1) $end
    $var wire  1 F! flush(2) $end
    $var wire  3 c funct3(1) [2:0] $end
    $var wire  3 d funct3(2) [2:0] $end
    $var wire  3 e funct3(3) [2:0] $end
    $var wire  1 h funct7_5b(1) [0:0] $end
    $var wire 32 9! fwd_a(2) [31:0] $end
    $var wire 32 ;! fwd_b(3) [31:0] $end
    $var wire  2 A! fwd_sel_a(2) [1:0] $end
    $var wire  2 B! fwd_sel_b(2) [1:0] $end
    $var wire  1 |" i_clk $end
    $var wire 32 v" i_cpu_instr [31:0] $end
    $var wire 32 {" i_cpu_mem_rd_data [31:0] $end
    $var wire  1 }" i_rstn $end
    $var wire 32 )! imm(2) [31:0] $end
    $var wire 32 *! imm(3) [31:0] $end
    $var wire 32 +! imm(4) [31:0] $end
    $var wire 32 '! instr(1) [31:0] $end
    $var wire 32 7! mem_rd_data(3) [31:0] $end
    $var wire 32 8! mem_rd_data(4) [31:0] $end
    $var wire  1 v mem_wr_en(2) [0:0] $end
    $var wire  1 w mem_wr_en(3) [0:0] $end
    $var wire 64 P! mux_concat_alu_a [63:0] $end
    $var wire 64 R! mux_concat_alu_b [63:0] $end
    $var wire 96 J! mux_concat_fwd_a [95:0] $end
    $var wire 96 M! mux_concat_fwd_b [95:0] $end
    $var wire 96 G! mux_concat_pc [95:0] $end
    $var wire 128 T! mux_concat_rd [127:0] $end
    $var wire 32 w" o_cpu_mem_addr [31:0] $end
    $var wire  4 y" o_cpu_mem_strb [3:0] $end
    $var wire 32 z" o_cpu_mem_wr_data [31:0] $end
    $var wire  1 x" o_cpu_mem_wr_en $end
    $var wire 32 u" o_cpu_pc [31:0] $end
    $var wire  7 f opcode(1) [6:0] $end
    $var wire  7 g opcode(2) [6:0] $end
    $var wire 32 | pc(0) [31:0] $end
    $var wire 32 } pc(1) [31:0] $end
    $var wire 32 ~ pc(2) [31:0] $end
    $var wire 32 !! pc4(0) [31:0] $end
    $var wire 32 "! pc4(1) [31:0] $end
    $var wire 32 #! pc4(2) [31:0] $end
    $var wire 32 $! pc4(3) [31:0] $end
    $var wire 32 %! pc4(4) [31:0] $end
    $var wire 32 X! pc_next [31:0] $end
    $var wire 32 &! pcimm(2) [31:0] $end
    $var wire  5 2! rd(1) [4:0] $end
    $var wire  5 3! rd(2) [4:0] $end
    $var wire  5 4! rd(3) [4:0] $end
    $var wire  5 5! rd(4) [4:0] $end
    $var wire 32 6! rd_data(4) [31:0] $end
    $var wire  1 p reg_wr_en(2) [0:0] $end
    $var wire  1 q reg_wr_en(3) [0:0] $end
    $var wire  1 r reg_wr_en(4) [0:0] $end
    $var wire  5 ,! rs1(1) [4:0] $end
    $var wire  5 -! rs1(2) [4:0] $end
    $var wire 32 0! rs1_data(2) [31:0] $end
    $var wire  5 .! rs2(1) [4:0] $end
    $var wire  5 /! rs2(2) [4:0] $end
    $var wire 32 1! rs2_data(2) [31:0] $end
    $var wire  1 y src_alu_a(2) [0:0] $end
    $var wire  1 z src_alu_b(2) [0:0] $end
    $var wire  3 o src_imm(1) [2:0] $end
    $var wire  2 { src_pc(2) [1:0] $end
    $var wire  2 s src_rd(2) [1:0] $end
    $var wire  2 t src_rd(3) [1:0] $end
    $var wire  2 u src_rd(4) [1:0] $end
    $var wire  1 C! stall(0) $end
    $var wire  1 D! stall(1) $end
    $var wire  4 l w_alu_ctrl(1) [3:0] $end
    $var wire 32 >! w_alu_out(2) [31:0] $end
    $var wire 32 :! w_fwd_b(2) [31:0] $end
    $var wire 32 (! w_imm(1) [31:0] $end
    $var wire  1 k w_mem_wr_en(1) [0:0] $end
    $var wire  1 i w_reg_wr_en(1) [0:0] $end
    $var wire 32 ~" w_rs1_data(1) [31:0] $end
    $var wire 32 !# w_rs2_data(1) [31:0] $end
    $var wire  1 m w_src_alu_a(1) [0:0] $end
    $var wire  1 n w_src_alu_b(1) [0:0] $end
    $var wire  2 j w_src_rd(1) [1:0] $end
    $scope module u_riscv_adder_pc_plus_4 $end
     $var wire 32 n! i_adder_a [31:0] $end
     $var wire 32 ,# i_adder_b [31:0] $end
     $var wire 32 m! o_adder_sum [31:0] $end
    $upscope $end
    $scope module u_riscv_adder_pc_plus_imm $end
     $var wire 32 E" i_adder_a [31:0] $end
     $var wire 32 F" i_adder_b [31:0] $end
     $var wire 32 D" o_adder_sum [31:0] $end
    $upscope $end
    $scope module u_riscv_alu $end
     $var wire 64 B" DEBUG_ALU_OP [63:0] $end
     $var wire  1 @" alu_zero $end
     $var wire 32 ;" i_alu_a [31:0] $end
     $var wire 32 <" i_alu_b [31:0] $end
     $var wire  4 ?" i_alu_ctrl [3:0] $end
     $var wire  3 >" i_alu_funct3 [2:0] $end
     $var wire  7 =" i_alu_opcode [6:0] $end
     $var wire 32 9" o_alu_out [31:0] $end
     $var wire  2 :" o_alu_src_pc [1:0] $end
     $var wire  1 A" take_branch $end
    $upscope $end
    $scope module u_riscv_ctrl $end
     $var wire 256 y! DEBUG_INSTR [255:0] $end
     $var wire  3 w! i_ctrl_funct3 [2:0] $end
     $var wire  1 x! i_ctrl_funct7_5b $end
     $var wire  7 v! i_ctrl_opcode [6:0] $end
     $var wire  4 r! o_ctrl_alu_ctrl [3:0] $end
     $var wire  1 q! o_ctrl_mem_wr_en $end
     $var wire  1 o! o_ctrl_reg_wr_en $end
     $var wire  1 s! o_ctrl_src_alu_a $end
     $var wire  1 t! o_ctrl_src_alu_b $end
     $var wire  3 u! o_ctrl_src_imm [2:0] $end
     $var wire  2 p! o_ctrl_src_rd [1:0] $end
    $upscope $end
    $scope module u_riscv_dmem_interface $end
     $var wire 32 M" byte_aligned_dmem_rd_data [31:0] $end
     $var wire  4 L" dmem_intf_strb [3:0] $end
     $var wire 32 H" i_dmem_intf_addr [31:0] $end
     $var wire  3 K" i_dmem_intf_func3 [2:0] $end
     $var wire 32 {" i_dmem_intf_rd_data [31:0] $end
     $var wire  1 I" i_dmem_intf_wen $end
     $var wire 32 J" i_dmem_intf_wr_data [31:0] $end
     $var wire 32 w" o_dmem_intf_addr [31:0] $end
     $var wire  4 y" o_dmem_intf_byte_sel [3:0] $end
     $var wire 32 G" o_dmem_intf_rd_data [31:0] $end
     $var wire  1 x" o_dmem_intf_wen $end
     $var wire 32 z" o_dmem_intf_wr_data [31:0] $end
    $upscope $end
    $scope module u_riscv_hazard $end
     $var wire  5 d! i_rd_ex [4:0] $end
     $var wire  5 e! i_rd_mm [4:0] $end
     $var wire  5 f! i_rd_wb [4:0] $end
     $var wire  1 g! i_reg_wr_en_ex $end
     $var wire  1 h! i_reg_wr_en_mm $end
     $var wire  1 i! i_reg_wr_en_wb $end
     $var wire  5 b! i_rs1_ex [4:0] $end
     $var wire  5 `! i_rs1_id [4:0] $end
     $var wire  5 c! i_rs2_ex [4:0] $end
     $var wire  5 a! i_rs2_id [4:0] $end
     $var wire  2 ^! i_src_pc_ex [1:0] $end
     $var wire  2 _! i_src_rd_ex [1:0] $end
     $var wire  1 ]! o_flush_ex $end
     $var wire  1 \! o_flush_id $end
     $var wire  2 Y! o_fwd_sel_a_ex [1:0] $end
     $var wire  2 Z! o_fwd_sel_b_ex [1:0] $end
     $var wire  1 [! o_stall_id $end
     $var wire  1 [! o_stall_if $end
     $var wire  1 [! stall $end
    $upscope $end
    $scope module u_riscv_immext $end
     $var wire 25 %" i_imm_instr [31:7] $end
     $var wire  3 &" i_imm_src [2:0] $end
     $var wire 32 $" o_imm_ext [31:0] $end
    $upscope $end
    $scope module u_riscv_mux_alu_a $end
     $var wire 32 )# N_MUX_IN [31:0] $end
     $var wire 64 P! i_mux_concat_data [63:0] $end
     $var wire  1 2" i_mux_sel [0:0] $end
     $var wire 32 3" mux_input_arr(0) [31:0] $end
     $var wire 32 4" mux_input_arr(1) [31:0] $end
     $var wire 32 1" o_mux_data [31:0] $end
    $upscope $end
    $scope module u_riscv_mux_alu_b $end
     $var wire 32 )# N_MUX_IN [31:0] $end
     $var wire 64 R! i_mux_concat_data [63:0] $end
     $var wire  1 6" i_mux_sel [0:0] $end
     $var wire 32 7" mux_input_arr(0) [31:0] $end
     $var wire 32 8" mux_input_arr(1) [31:0] $end
     $var wire 32 5" o_mux_data [31:0] $end
    $upscope $end
    $scope module u_riscv_mux_fwd_a $end
     $var wire 32 *# N_MUX_IN [31:0] $end
     $var wire 96 J! i_mux_concat_data [95:0] $end
     $var wire  2 (" i_mux_sel [1:0] $end
     $var wire 32 )" mux_input_arr(0) [31:0] $end
     $var wire 32 *" mux_input_arr(1) [31:0] $end
     $var wire 32 +" mux_input_arr(2) [31:0] $end
     $var wire 32 '" o_mux_data [31:0] $end
    $upscope $end
    $scope module u_riscv_mux_fwd_b $end
     $var wire 32 *# N_MUX_IN [31:0] $end
     $var wire 96 M! i_mux_concat_data [95:0] $end
     $var wire  2 -" i_mux_sel [1:0] $end
     $var wire 32 ." mux_input_arr(0) [31:0] $end
     $var wire 32 /" mux_input_arr(1) [31:0] $end
     $var wire 32 0" mux_input_arr(2) [31:0] $end
     $var wire 32 ," o_mux_data [31:0] $end
    $upscope $end
    $scope module u_riscv_mux_pc $end
     $var wire 32 *# N_MUX_IN [31:0] $end
     $var wire 96 G! i_mux_concat_data [95:0] $end
     $var wire  2 ^! i_mux_sel [1:0] $end
     $var wire 32 j! mux_input_arr(0) [31:0] $end
     $var wire 32 k! mux_input_arr(1) [31:0] $end
     $var wire 32 l! mux_input_arr(2) [31:0] $end
     $var wire 32 X! o_mux_data [31:0] $end
    $upscope $end
    $scope module u_riscv_mux_regfile_rd_data $end
     $var wire 32 +# N_MUX_IN [31:0] $end
     $var wire 128 T! i_mux_concat_data [127:0] $end
     $var wire  2 O" i_mux_sel [1:0] $end
     $var wire 32 P" mux_input_arr(0) [31:0] $end
     $var wire 32 Q" mux_input_arr(1) [31:0] $end
     $var wire 32 R" mux_input_arr(2) [31:0] $end
     $var wire 32 S" mux_input_arr(3) [31:0] $end
     $var wire 32 N" o_mux_data [31:0] $end
    $upscope $end
    $scope module u_riscv_regfile $end
     $var wire  1 $# i_clk $end
     $var wire  5 f! i_regfile_rd_addr [4:0] $end
     $var wire 32 #" i_regfile_rd_data [31:0] $end
     $var wire  1 i! i_regfile_rd_wen $end
     $var wire  5 `! i_regfile_rs1_addr [4:0] $end
     $var wire  5 a! i_regfile_rs2_addr [4:0] $end
     $var wire 32 "# o_regfile_rs1_data [31:0] $end
     $var wire 32 ## o_regfile_rs2_data [31:0] $end
     $var wire 32 U" registers(0) [31:0] $end
     $var wire 32 V" registers(1) [31:0] $end
     $var wire 32 _" registers(10) [31:0] $end
     $var wire 32 `" registers(11) [31:0] $end
     $var wire 32 a" registers(12) [31:0] $end
     $var wire 32 b" registers(13) [31:0] $end
     $var wire 32 c" registers(14) [31:0] $end
     $var wire 32 d" registers(15) [31:0] $end
     $var wire 32 e" registers(16) [31:0] $end
     $var wire 32 f" registers(17) [31:0] $end
     $var wire 32 g" registers(18) [31:0] $end
     $var wire 32 h" registers(19) [31:0] $end
     $var wire 32 W" registers(2) [31:0] $end
     $var wire 32 i" registers(20) [31:0] $end
     $var wire 32 j" registers(21) [31:0] $end
     $var wire 32 k" registers(22) [31:0] $end
     $var wire 32 l" registers(23) [31:0] $end
     $var wire 32 m" registers(24) [31:0] $end
     $var wire 32 n" registers(25) [31:0] $end
     $var wire 32 o" registers(26) [31:0] $end
     $var wire 32 p" registers(27) [31:0] $end
     $var wire 32 q" registers(28) [31:0] $end
     $var wire 32 r" registers(29) [31:0] $end
     $var wire 32 X" registers(3) [31:0] $end
     $var wire 32 s" registers(30) [31:0] $end
     $var wire 32 t" registers(31) [31:0] $end
     $var wire 32 Y" registers(4) [31:0] $end
     $var wire 32 Z" registers(5) [31:0] $end
     $var wire 32 [" registers(6) [31:0] $end
     $var wire 32 \" registers(7) [31:0] $end
     $var wire 32 ]" registers(8) [31:0] $end
     $var wire 32 ^" registers(9) [31:0] $end
    $upscope $end
   $upscope $end
   $scope module u_riscv_dmem $end
    $var wire 1024 C FILE_DATA_MIF [1023:0] $end
    $var wire 32 T" i [31:0] $end
    $var wire  1 |" i_clk $end
    $var wire 14 &# i_dmem_addr [13:0] $end
    $var wire  4 y" i_dmem_byte_sel [3:0] $end
    $var wire 32 z" i_dmem_data [31:0] $end
    $var wire  1 x" i_dmem_wr_en $end
    $var wire 32 {" o_dmem_data [31:0] $end
   $upscope $end
   $scope module u_riscv_imem $end
    $var wire 1024 # FILE_TEXT_MIF [1023:0] $end
    $var wire 14 %# i_imem_addr [13:0] $end
    $var wire 32 v" o_imem_data [31:0] $end
   $upscope $end
  $upscope $end
 $upscope $end
$enddefinitions $end


#0
b0000000000000000000000000000000000000000000000000000000000000000000000000000000000000000000000000000000000000000000000000000000000000000000000000000000000000000000000000000000000000000000000000000000000000000000000000000000000000000000000000000000000000000000000000000000000000000000000000000000000000000000000000000000000000000000000000000000000000000000000000000000000000000000000000000000000000000000000000000000000000000000000000000000000000000001011110110100001101111011011010110010100101111011101110110111101101111011011100110011100101111011100000111001001101111011010100110010101100011011101000111001100101111011101100110010101110010011010010110110001101111011001110101111101110100011101010111010001101111011100100110100101100001011011000111001100101111010100100101011000110011001100100100100100101111011101000110010101110011011101000110001001100101011011100110001101101000001011110110110101101001011001100010111101110011011011000111010001101001001011100111010001100101011110000111010000101110011011010110100101100110 #
b0000000000000000000000000000000000000000000000000000000000000000000000000000000000000000000000000000000000000000000000000000000000000000000000000000000000000000000000000000000000000000000000000000000000000000000000000000000000000000000000000000000000000000000000000000000000000000000000000000000000000000000000000000000000000000000000000000000000000000000000000000000000000000000000000000000000000000000000000000000000000000000000000000000000000000001011110110100001101111011011010110010100101111011101110110111101101111011011100110011100101111011100000111001001101111011010100110010101100011011101000111001100101111011101100110010101110010011010010110110001101111011001110101111101110100011101010111010001101111011100100110100101100001011011000111001100101111010100100101011000110011001100100100100100101111011101000110010101110011011101000110001001100101011011100110001101101000001011110110110101101001011001100010111101110011011011000111010001101001001011100110010001100001011101000110000100101110011011010110100101100110 C
b000 c
b000 d
b000 e
b0000000 f
b0000000 g
0h
1i
b00 j
0k
b0000 l
0m
0n
b111 o
0p
0q
0r
b00 s
b00 t
b00 u
0v
0w
b0000 x
0y
0z
b00 {
b00000000000000000000000000000000 |
b00000000000000000000000000000000 }
b00000000000000000000000000000000 ~
b00000000000000000000000000000100 !!
b00000000000000000000000000000000 "!
b00000000000000000000000000000000 #!
b00000000000000000000000000000000 $!
b00000000000000000000000000000000 %!
b00000000000000000000000000000000 &!
b00000000000000000000000000000000 '!
b00000000000000000000000000000000 (!
b00000000000000000000000000000000 )!
b00000000000000000000000000000000 *!
b00000000000000000000000000000000 +!
b00000 ,!
b00000 -!
b00000 .!
b00000 /!
b00000000000000000000000000000000 0!
b00000000000000000000000000000000 1!
b00000 2!
b00000 3!
b00000 4!
b00000 5!
b00000000000000000000000000000000 6!
b00000000000000000000000000000000 7!
b00000000000000000000000000000000 8!
b00000000000000000000000000000000 9!
b00000000000000000000000000000000 :!
b00000000000000000000000000000000 ;!
b00000000000000000000000000000000 <!
b00000000000000000000000000000000 =!
b00000000000000000000000000000000 >!
b00000000000000000000000000000000 ?!
b00000000000000000000000000000000 @!
b00 A!
b00 B!
0C!
0D!
0E!
0F!
b000000000000000000000000000000000000000000000000000000000000000000000000000000000000000000000100 G!
b000000000000000000000000000000000000000000000000000000000000000000000000000000000000000000000000 J!
b000000000000000000000000000000000000000000000000000000000000000000000000000000000000000000000000 M!
b0000000000000000000000000000000000000000000000000000000000000000 P!
b0000000000000000000000000000000000000000000000000000000000000000 R!
b00000000000000000000000000000000000000000000000000000000000000000000000000000000000000000000000000000000000000000000000000000000 T!
b00000000000000000000000000000100 X!
b00 Y!
b00 Z!
0[!
0\!
0]!
b00 ^!
b00 _!
b00000 `!
b00000 a!
b00000 b!
b00000 c!
b00000 d!
b00000 e!
b00000 f!
0g!
0h!
0i!
b00000000000000000000000000000100 j!
b00000000000000000000000000000000 k!
b00000000000000000000000000000000 l!
b00000000000000000000000000000100 m!
b00000000000000000000000000000000 n!
1o!
b00 p!
0q!
b0000 r!
0s!
0t!
b111 u!
b0000000 v!
b000 w!
0x!
b0000000000000000000000000000000000000000000000000000000000000000000000000000000000000000000000000000000000000000000000000000000000000000000000000000000000000000000000000000000000000000000000000000000000000000000000000000000000000000000000000000000000101101 y!
b00000000000000000000000000000000 #"
b00000000000000000000000000000000 $"
b0000000000000000000000000 %"
b111 &"
b00000000000000000000000000000000 '"
b00 ("
b00000000000000000000000000000000 )"
b00000000000000000000000000000000 *"
b00000000000000000000000000000000 +"
b00000000000000000000000000000000 ,"
b00 -"
b00000000000000000000000000000000 ."
b00000000000000000000000000000000 /"
b00000000000000000000000000000000 0"
b00000000000000000000000000000000 1"
02"
b00000000000000000000000000000000 3"
b00000000000000000000000000000000 4"
b00000000000000000000000000000000 5"
06"
b00000000000000000000000000000000 7"
b00000000000000000000000000000000 8"
b00000000000000000000000000000000 9"
b00 :"
b00000000000000000000000000000000 ;"
b00000000000000000000000000000000 <"
b0000000 ="
b000 >"
b0000 ?"
1@"
0A"
b0000000000000000000000000000000001000001010001000100010000001001 B"
b00000000000000000000000000000000 D"
b00000000000000000000000000000000 E"
b00000000000000000000000000000000 F"
b00000000000000000000000000000000 G"
b00000000000000000000000000000000 H"
0I"
b00000000000000000000000000000000 J"
b000 K"
b0001 L"
b00000000000000000000000000000000 M"
b00000000000000000000000000000000 N"
b00 O"
b00000000000000000000000000000000 P"
b00000000000000000000000000000000 Q"
b00000000000000000000000000000000 R"
b00000000000000000000000000000000 S"
b00000000000000000000000000000000 T"
b00000000000000000000000000000000 U"
b00000000000000000000000000000000 V"
b00000000000000000000000000000000 W"
b00000000000000000000000000000000 X"
b00000000000000000000000000000000 Y"
b00000000000000000000000000000000 Z"
b00000000000000000000000000000000 ["
b00000000000000000000000000000000 \"
b00000000000000000000000000000000 ]"
b00000000000000000000000000000000 ^"
b00000000000000000000000000000000 _"
b00000000000000000000000000000000 `"
b00000000000000000000000000000000 a"
b00000000000000000000000000000000 b"
b00000000000000000000000000000000 c"
b00000000000000000000000000000000 d"
b00000000000000000000000000000000 e"
b00000000000000000000000000000000 f"
b00000000000000000000000000000000 g"
b00000000000000000000000000000000 h"
b00000000000000000000000000000000 i"
b00000000000000000000000000000000 j"
b00000000000000000000000000000000 k"
b00000000000000000000000000000000 l"
b00000000000000000000000000000000 m"
b00000000000000000000000000000000 n"
b00000000000000000000000000000000 o"
b00000000000000000000000000000000 p"
b00000000000000000000000000000000 q"
b00000000000000000000000000000000 r"
b00000000000000000000000000000000 s"
b00000000000000000000000000000000 t"
b00000000000000000000000000000000 u"
b00000000001000000000111000010011 v"
b00000000000000000000000000000000 w"
0x"
b0001 y"
b00000000000000000000000000000000 z"
b00000000000000000000000000000000 {"
1|"
0}"
b00000000000000000000000000000000 ~"
b00000000000000000000000000000000 !#
b00000000000000000000000000000000 "#
b00000000000000000000000000000000 ##
0$#
b00000000000000 %#
b00000000000000 &#
b00000000000000000000000000000000 '#
b00000000000000000000000000000001 (#
b00000000000000000000000000000010 )#
b00000000000000000000000000000011 *#
b00000000000000000000000000000100 +#
b00000000000000000000000000000100 ,#
#1
0|"
1$#
#2
b0010011 f
1n
b001 o
1p
b00000000000000000000000000000100 "!
b00000000001000000000111000010011 '!
b00000000000000000000000000000010 (!
b00010 .!
b11100 2!
b00010 a!
1g!
1t!
b001 u!
b0010011 v!
b0000000000000000000000000000000000000000000000000000000000000000000000000000000000000000000000000000000000000000000000000000000000000000000000000000000000000000000000000000000000000000000000000000000000000000000000000000000001100001011001000110010001101001 y!
b00000000000000000000000000000010 $"
b0000000000100000000011100 %"
b001 &"
1|"
0$#
#3
0|"
1$#
#4
b0010011 g
1q
1z
b00000000000000000000000000000100 #!
b00000000000000000000000000000010 &!
b00000000000000000000000000000010 )!
b00010 /!
b11100 3!
b00000000000000000000000000000010 =!
b00000000000000000000000000000010 >!
b000000000000000000000000000000100000000000000000000000000000001000000000000000000000000000000100 G!
b0000000000000000000000000000001000000000000000000000000000000000 R!
b00010 c!
b11100 d!
1h!
b00000000000000000000000000000010 k!
b00000000000000000000000000000010 l!
b00000000000000000000000000000010 5"
16"
b00000000000000000000000000000010 8"
b00000000000000000000000000000010 9"
b00000000000000000000000000000010 <"
b0010011 ="
0@"
b00000000000000000000000000000010 D"
b00000000000000000000000000000010 F"
1|"
0$#
#5
0|"
1$#
#6
1r
b00000000000000000000000000000100 $!
b00000000000000000000000000000010 *!
b11100 4!
b00000000000000000000000000000010 ?!
b000000000000000000000000000000000000000000000000000000000000001000000000000000000000000000000000 J!
b000000000000000000000000000000000000000000000000000000000000001000000000000000000000000000000000 M!
b11100 e!
1i!
b00000000000000000000000000000010 *"
b00000000000000000000000000000010 /"
b00000000000000000000000000000010 H"
b00000000000000000000000000000010 w"
b0100 y"
1|"
0$#
#7
0|"
1$#
#8
b00000000000000000000000000000100 %!
b00000000000000000000000000000010 +!
b11100 5!
b00000000000000000000000000000010 6!
b00000000000000000000000000000010 @!
b000000000000000000000000000000100000000000000000000000000000001000000000000000000000000000000000 J!
b000000000000000000000000000000100000000000000000000000000000001000000000000000000000000000000000 M!
b00000000000000000000000000000010000000000000000000000000000001000000000000000000000000000000000000000000000000000000000000000010 T!
b11100 f!
b00000000000000000000000000000010 #"
b00000000000000000000000000000010 +"
b00000000000000000000000000000010 0"
b00000000000000000000000000000010 N"
b00000000000000000000000000000010 P"
b00000000000000000000000000000100 R"
b00000000000000000000000000000010 S"
1|"
0$#
#9
b00000000000000000000000000000010 q"
0|"
1$#
#10
1|"
0$#
#11
0|"
1}"
1$#
#12
b00000000000000000000000000000100 |
b00000000000000000000000000001000 !!
b000000000000000000000000000000100000000000000000000000000000001000000000000000000000000000001000 G!
b00000000000000000000000000001000 X!
b00000000000000000000000000001000 j!
b00000000000000000000000000001000 m!
b00000000000000000000000000000100 n!
b00000000000000000000000000000100 u"
b00000000000000000000011010010011 v"
1|"
0$#
b00000000000001 %#
#13
0|"
1$#
#14
b00000000000000000000000000001000 |
b00000000000000000000000000000100 }
b00000000000000000000000000001100 !!
b00000000000000000000000000001000 "!
b00000000000000000000011010010011 '!
b00000000000000000000000000000000 (!
b00000 .!
b01101 2!
b000000000000000000000000000000100000000000000000000000000000001000000000000000000000000000001100 G!
b00000000000000000000000000001100 X!
b00000 a!
b00000000000000000000000000001100 j!
b00000000000000000000000000001100 m!
b00000000000000000000000000001000 n!
b00000000000000000000000000000000 $"
b0000000000000000000001101 %"
b00000000000000000000000000001000 u"
b00000000000001101010011100010011 v"
1|"
0$#
b00000000000010 %#
#15
0|"
1$#
#16
b010 c
b0010 l
b00000000000000000000000000001100 |
b00000000000000000000000000001000 }
b00000000000000000000000000000100 ~
b00000000000000000000000000010000 !!
b00000000000000000000000000001100 "!
b00000000000000000000000000001000 #!
b00000000000000000000000000000100 &!
b00000000000001101010011100010011 '!
b00000000000000000000000000000000 )!
b01101 ,!
b00000 /!
b01110 2!
b01101 3!
b00000000000000000000000000000000 =!
b00000000000000000000000000000000 >!
b000000000000000000000000000000000000000000000000000000000000010000000000000000000000000000010000 G!
b0000000000000000000000000000010000000000000000000000000000000000 P!
b0000000000000000000000000000000000000000000000000000000000000000 R!
b00000000000000000000000000010000 X!
b01101 `!
b00000 c!
b01101 d!
b00000000000000000000000000010000 j!
b00000000000000000000000000000100 k!
b00000000000000000000000000000000 l!
b00000000000000000000000000010000 m!
b00000000000000000000000000001100 n!
b0010 r!
b010 w!
b0000000000000000000000000000000000000000000000000000000000000000000000000000000000000000000000000000000000000000000000000000000000000000000000000000000000000000000000000000000000000000000000000000000000000000000000000000000001110011011011000111010001101001 y!
b0000000000000110101001110 %"
b00000000000000000000000000000100 4"
b00000000000000000000000000000000 5"
b00000000000000000000000000000000 8"
b00000000000000000000000000000000 9"
b00000000000000000000000000000000 <"
1@"
b00000000000000000000000000000100 D"
b00000000000000000000000000000100 E"
b00000000000000000000000000000000 F"
b00000000000000000000000000001100 u"
b00000000000000000000001110010011 v"
1|"
0$#
b00000000000011 %#
#17
0|"
1$#
#18
b000 c
b010 d
b0000 l
b0010 x
b00000000000000000000000000010000 |
b00000000000000000000000000001100 }
b00000000000000000000000000001000 ~
b00000000000000000000000000010100 !!
b00000000000000000000000000010000 "!
b00000000000000000000000000001100 #!
b00000000000000000000000000001000 $!
b00000000000000000000000000001000 &!
b00000000000000000000001110010011 '!
b00000000000000000000000000000000 *!
b00000 ,!
b01101 -!
b00111 2!
b01110 3!
b01101 4!
b00000000000000000000000000000000 ?!
b01 A!
b000000000000000000000000000000000000000000000000000000000000100000000000000000000000000000010100 G!
b000000000000000000000000000000100000000000000000000000000000000000000000000000000000000000000000 J!
b000000000000000000000000000000100000000000000000000000000000000000000000000000000000000000000000 M!
b0000000000000000000000000000100000000000000000000000000000000000 P!
b00000000000000000000000000010100 X!
b01 Y!
b00000 `!
b01101 b!
b01110 d!
b01101 e!
b00000000000000000000000000010100 j!
b00000000000000000000000000001000 k!
b00000000000000000000000000010100 m!
b00000000000000000000000000010000 n!
b0000 r!
b000 w!
b0000000000000000000000000000000000000000000000000000000000000000000000000000000000000000000000000000000000000000000000000000000000000000000000000000000000000000000000000000000000000000000000000000000000000000000000000000000001100001011001000110010001101001 y!
b0000000000000000000000111 %"
b01 ("
b00000000000000000000000000000000 *"
b00000000000000000000000000000000 /"
b00000000000000000000000000001000 4"
b010 >"
b0010 ?"
b0000000000000000000000000000000001010011010011000101010000001001 B"
b00000000000000000000000000001000 D"
b00000000000000000000000000001000 E"
b00000000000000000000000000000000 H"
b00000000000000000000000000010000 u"
b00100110011101110001001001100011 v"
b00000000000000000000000000000000 w"
b0001 y"
1|"
0$#
b00000000000100 %#
#19
0|"
1$#
#20
b001 c
b000 d
b010 e
b1100011 f
0i
b1000 l
0n
b011 o
b0000 x
b00000000000000000000000000010100 |
b00000000000000000000000000010000 }
b00000000000000000000000000001100 ~
b00000000000000000000000000011000 !!
b00000000000000000000000000010100 "!
b00000000000000000000000000010000 #!
b00000000000000000000000000001100 $!
b00000000000000000000000000001000 %!
b00000000000000000000000000001100 &!
b00100110011101110001001001100011 '!
b00000000000000000000001001100100 (!
b00000000000000000000000000000000 +!
b01110 ,!
b00000 -!
b00111 .!
b00100 2!
b00111 3!
b01110 4!
b01101 5!
b00000000000000000000000000000000 6!
b00000000000000000000000000000000 @!
b00 A!
b000000000000000000000000000000000000000000000000000000000000110000000000000000000000000000011000 G!
b000000000000000000000000000000000000000000000000000000000000000000000000000000000000000000000000 J!
b000000000000000000000000000000000000000000000000000000000000000000000000000000000000000000000000 M!
b0000000000000000000000000000110000000000000000000000000000000000 P!
b00000000000000000000000000000000000000000000000000000000000010000000000000000000000000000000000000000000000000000000000000000000 T!
b00000000000000000000000000011000 X!
b00 Y!
b01110 `!
b00111 a!
b00000 b!
b00111 d!
b01110 e!
b01101 f!
b00000000000000000000000000011000 j!
b00000000000000000000000000001100 k!
b00000000000000000000000000011000 m!
b00000000000000000000000000010100 n!
0o!
b1000 r!
0t!
b011 u!
b1100011 v!
b001 w!
b0000000000000000000000000000000000000000000000000000000000000000000000000000000000000000000000000000000000000000000000000000000000000000000000000000000000000000000000000000000000000000000000000000000000000000000000000000000000000000011000100110111001100101 y!
b00000000000000000000000000000000 #"
b00000000000000000000001001100100 $"
b0010011001110111000100100 %"
b011 &"
b00 ("
b00000000000000000000000000000000 +"
b00000000000000000000000000000000 0"
b00000000000000000000000000001100 4"
b000 >"
b0000 ?"
b0000000000000000000000000000000001000001010001000100010000001001 B"
b00000000000000000000000000001100 D"
b00000000000000000000000000001100 E"
b010 K"
b1111 L"
b00000000000000000000000000000000 N"
b00000000000000000000000000000000 P"
b00000000000000000000000000001000 R"
b00000000000000000000000000000000 S"
b00000000000000000000000000010100 u"
b00000000001100000000111000010011 v"
b1111 y"
1|"
0$#
b00000000000101 %#
#21
0|"
1$#
