zaram_training_course/project_0/4_shift_register/vcd/shift_register.vcd
$date
	Sat Jul  6 21:38:59 2024
$end
$version
	Icarus Verilog
$end
$timescale
	1ps
$end
$scope module shift_register_tb $end
$var wire 1 ! o_ser_out $end
$var wire 8 " o_par_out [7:0] $end
$var reg 8 # err [7:0] $end
$var reg 1 $ i_clk $end
$var reg 1 % i_load $end
$var reg 8 & i_par_in [7:0] $end
$var reg 1 ' i_rstn $end
$var reg 1 ( i_ser_in $end
$var reg 256 ) taskState [255:0] $end
$var reg 256 * vcd_file [255:0] $end
$var integer 32 + i [31:0] $end
$var integer 32 , j [31:0] $end
$scope module u_shift_register $end
$var wire 1 $ i_clk $end
$var wire 1 % i_load $end
$var wire 8 - i_par_in [7:0] $end
$var wire 1 ' i_rstn $end
$var wire 1 ( i_ser_in $end
$var wire 1 ! o_ser_out $end
$var wire 8 . o_par_out [7:0] $end
$scope begin genblk1[0] $end
$scope module u_shift_register_unit $end
$var wire 1 $ i_clk $end
$var wire 1 % i_load $end
$var wire 1 / i_par_in $end
$var wire 1 ' i_rstn $end
$var wire 1 ( i_ser_in $end
$var reg 1 0 o_out $end
$upscope $end
$upscope $end
$scope begin genblk1[1] $end
$scope module u_shift_register_unit $end
$var wire 1 $ i_clk $end
$var wire 1 % i_load $end
$var wire 1 1 i_par_in $end
$var wire 1 ' i_rstn $end
$var wire 1 2 i_ser_in $end
$var reg 1 3 o_out $end
$upscope $end
$upscope $end
$scope begin genblk1[2] $end
$scope module u_shift_register_unit $end
$var wire 1 $ i_clk $end
$var wire 1 % i_load $end
$var wire 1 4 i_par_in $end
$var wire 1 ' i_rstn $end
$var wire 1 5 i_ser_in $end
$var reg 1 6 o_out $end
$upscope $end
$upscope $end
$scope begin genblk1[3] $end
$scope module u_shift_register_unit $end
$var wire 1 $ i_clk $end
$var wire 1 % i_load $end
$var wire 1 7 i_par_in $end
$var wire 1 ' i_rstn $end
$var wire 1 8 i_ser_in $end
$var reg 1 9 o_out $end
$upscope $end
$upscope $end
$scope begin genblk1[4] $end
$scope module u_shift_register_unit $end
$var wire 1 $ i_clk $end
$var wire 1 % i_load $end
$var wire 1 : i_par_in $end
$var wire 1 ' i_rstn $end
$var wire 1 ; i_ser_in $end
$var reg 1 < o_out $end
$upscope $end
$upscope $end
$scope begin genblk1[5] $end
$scope module u_shift_register_unit $end
$var wire 1 $ i_clk $end
$var wire 1 % i_load $end
$var wire 1 = i_par_in $end
$var wire 1 ' i_rstn $end
$var wire 1 > i_ser_in $end
$var reg 1 ? o_out $end
$upscope $end
$upscope $end
$scope begin genblk1[6] $end
$scope module u_shift_register_unit $end
$var wire 1 $ i_clk $end
$var wire 1 % i_load $end
$var wire 1 @ i_par_in $end
$var wire 1 ' i_rstn $end
$var wire 1 A i_ser_in $end
$var reg 1 B o_out $end
$upscope $end
$upscope $end
$scope begin genblk1[7] $end
$scope module u_shift_register_unit $end
$var wire 1 $ i_clk $end
$var wire 1 % i_load $end
$var wire 1 C i_par_in $end
$var wire 1 ' i_rstn $end
$var wire 1 D i_ser_in $end
$var reg 1 E o_out $end
$upscope $end
$upscope $end
$upscope $end
$scope task init $end
$upscope $end
$scope task parallel_to_serial $end
$var reg 8 F ti_parallel [7:0] $end
$upscope $end
$scope task resetNCycle $end
$var reg 10 G i [9:0] $end
$upscope $end
$scope task serial_to_parallel $end
$var reg 8 H ti_serial [7:0] $end
$upscope $end
$upscope $end
$enddefinitions $end
#0
$dumpvars
bx H
b100 G
bx F
0E
0D
0C
0B
0A
0@
0?
0>
0=
0<
0;
0:
09
08
07
06
05
04
03
02
01
00
0/
b0 .
b0 -
bx ,
bx +
b1011100010111101110110011000110110010000101111011100110110100001101001011001100111010001011111011100100110010101100111011010010111001101110100011001010111001000101110011101100110001101100100 *
b101001001100101011100110110010101110100 )
0(
0'
b0 &
0%
0$
b0 #
b0 "
0!
$end
#5000
1$
#10000
0$
#15000
1$
#20000
0$
#25000
1$
#30000
0$
#35000
1$
#40000
0$
b0 +
b1010011011001010111001000110010010100000110000101110010 )
b100100 H
b0 ,
1'
#45000
1$
#50000
0$
b1 +
#55000
1$
#60000
0$
1(
b10 +
#65000
12
b1 "
b1 .
10
1$
#70000
0$
0(
b11 +
#75000
02
15
00
b10 "
b10 .
13
1$
#80000
0$
b100 +
#85000
18
05
16
b100 "
b100 .
03
1$
#90000
0$
1(
b101 +
#95000
12
08
1;
10
06
b1001 "
b1001 .
19
1$
#100000
0$
0(
b110 +
#105000
1>
0;
15
02
1<
09
13
b10010 "
b10010 .
00
1$
#110000
0$
b111 +
#115000
05
18
0>
1A
03
16
0<
b100100 "
b100100 .
1?
1$
#120000
0$
1(
b10000001 H
b1 ,
b0 +
#125000
1D
0A
1;
08
12
1B
0?
19
06
b1001001 "
b1001001 .
10
1$
#130000
0$
0(
b1 +
#135000
02
15
0;
1>
0D
1!
00
13
09
1<
0B
b10010010 "
b10010010 .
1E
1$
#140000
0$
b10 +
#145000
0!
1A
0>
18
05
0E
1?
0<
16
b100100 "
b100100 .
03
1$
#150000
0$
b11 +
#155000
08
1;
0A
1D
06
19
0?
b1001000 "
b1001000 .
1B
1$
#160000
0$
b100 +
#165000
1!
0D
1>
0;
1E
0B
1<
b10010000 "
b10010000 .
09
1$
#170000
0$
b101 +
#175000
0>
1A
0!
0<
1?
b100000 "
b100000 .
0E
1$
#180000
0$
b110 +
#185000
1D
0A
1B
b1000000 "
b1000000 .
0?
1$
#190000
0$
1(
b111 +
#195000
12
0D
1!
10
0B
b10000001 "
b10000001 .
1E
1$
#200000
0$
0(
b1001 H
b10 ,
b0 +
#205000
0!
15
02
0E
13
b10 "
b10 .
00
1$
#210000
0$
b1 +
#215000
05
18
03
b100 "
b100 .
16
1$
#220000
0$
b10 +
#225000
1;
08
19
b1000 "
b1000 .
06
1$
#230000
0$
b11 +
#235000
0;
1>
09
b10000 "
b10000 .
1<
1$
#240000
0$
1(
b100 +
#245000
1A
0>
12
1?
0<
b100001 "
b100001 .
10
1$
#250000
0$
0(
b101 +
#255000
02
15
0A
1D
00
13
0?
b1000010 "
b1000010 .
1B
1$
#260000
0$
b110 +
#265000
1!
0D
18
05
1E
0B
16
b10000100 "
b10000100 .
03
1$
#270000
0$
1(
b111 +
#275000
12
08
1;
0!
10
06
19
b1001 "
b1001 .
0E
1$
#280000
0$
0(
b1100011 H
b11 ,
b0 +
#285000
1>
0;
15
02
1<
09
13
b10010 "
b10010 .
00
1$
#290000
0$
1(
b1 +
#295000
12
05
18
0>
1A
10
03
16
0<
b100101 "
b100101 .
1?
1$
#300000
0$
b10 +
#305000
1D
0A
1;
08
15
1B
0?
19
06
b1001011 "
b1001011 .
13
1$
#310000
0$
0(
b11 +
#315000
02
18
0;
1>
0D
1!
00
16
09
1<
0B
b10010110 "
b10010110 .
1E
1$
#320000
0$
b100 +
#325000
0!
1A
0>
1;
05
0E
1?
0<
19
b101100 "
b101100 .
03
1$
#330000
0$
b101 +
#335000
08
1>
0A
1D
06
1<
0?
b1011000 "
b1011000 .
1B
1$
#340000
0$
1(
b110 +
#345000
1!
0D
1A
0;
12
1E
0B
1?
09
b10110001 "
b10110001 .
10
1$
#350000
0$
b111 +
#355000
15
0>
1D
0!
13
0<
1B
b1100011 "
b1100011 .
0E
1$
#360000
0$
0(
b1101 H
b100 ,
b0 +
#365000
1!
0A
18
02
1E
0?
16
b11000110 "
b11000110 .
00
1$
#370000
0$
b1 +
#375000
05
1;
0D
03
19
b10001100 "
b10001100 .
0B
1$
#380000
0$
b10 +
#385000
0!
1>
08
0E
1<
b11000 "
b11000 .
06
1$
#390000
0$
b11 +
#395000
0;
1A
09
b110000 "
b110000 .
1?
1$
#400000
0$
1(
b100 +
#405000
1D
0>
12
1B
0<
b1100001 "
b1100001 .
10
1$
#410000
0$
b101 +
#415000
15
0A
1!
13
0?
b11000011 "
b11000011 .
1E
1$
#420000
0$
0(
b110 +
#425000
0D
18
02
0B
16
b10000110 "
b10000110 .
00
1$
#430000
0$
1(
b111 +
#435000
12
05
1;
0!
10
03
19
b1101 "
b1101 .
0E
1$
#440000
0$
b10001101 H
b101 ,
b0 +
#445000
1>
08
15
1<
06
b11011 "
b11011 .
13
1$
#450000
0$
0(
b1 +
#455000
02
18
0;
1A
00
16
09
b110110 "
b110110 .
1?
1$
#460000
0$
b10 +
#465000
1D
0>
1;
05
1B
0<
19
b1101100 "
b1101100 .
03
1$
#470000
0$
b11 +
#475000
08
1>
0A
1!
06
1<
0?
b11011000 "
b11011000 .
1E
1$
#480000
0$
1(
b100 +
#485000
0D
1A
0;
12
0B
1?
09
b10110001 "
b10110001 .
10
1$
#490000
0$
b101 +
#495000
15
0>
1D
0!
13
0<
1B
b1100011 "
b1100011 .
0E
1$
#500000
0$
0(
b110 +
#505000
1!
0A
18
02
1E
0?
16
b11000110 "
b11000110 .
00
1$
#510000
0$
1(
b111 +
#515000
12
05
1;
0D
10
03
19
b10001101 "
b10001101 .
0B
1$
#520000
0$
0(
b1100101 H
b110 ,
b0 +
#525000
0!
1>
08
15
02
0E
1<
06
13
b11010 "
b11010 .
00
1$
#530000
0$
1(
b1 +
#535000
12
05
18
0;
1A
10
03
16
09
b110101 "
b110101 .
1?
1$
#540000
0$
b10 +
#545000
1D
0>
1;
08
15
1B
0<
19
06
b1101011 "
b1101011 .
13
1$
#550000
0$
0(
b11 +
#555000
02
18
0;
1>
0A
1!
00
16
09
1<
0?
b11010110 "
b11010110 .
1E
1$
#560000
0$
b100 +
#565000
0D
1A
0>
1;
05
0B
1?
0<
19
b10101100 "
b10101100 .
03
1$
#570000
0$
1(
b101 +
#575000
12
08
1>
0A
1D
0!
10
06
1<
0?
1B
b1011001 "
b1011001 .
0E
1$
#580000
0$
0(
b110 +
#585000
1!
0D
1A
0;
15
02
1E
0B
1?
09
13
b10110010 "
b10110010 .
00
1$
#590000
0$
1(
b111 +
#595000
12
05
18
0>
1D
0!
10
03
16
0<
1B
b1100101 "
b1100101 .
0E
1$
#600000
0$
0(
b10010 H
b111 ,
b0 +
#605000
1!
0A
1;
08
15
02
1E
0?
19
06
13
b11001010 "
b11001010 .
00
1$
#610000
0$
b1 +
#615000
05
18
0;
1>
0D
03
16
09
1<
b10010100 "
b10010100 .
0B
1$
#620000
0$
b10 +
#625000
0!
1A
0>
1;
08
0E
1?
0<
19
b101000 "
b101000 .
06
1$
#630000
0$
1(
b11 +
#635000
12
0;
1>
0A
1D
10
09
1<
0?
b1010001 "
b1010001 .
1B
1$
#640000
0$
0(
b100 +
#645000
1!
0D
1A
0>
15
02
1E
0B
1?
0<
13
b10100010 "
b10100010 .
00
1$
#650000
0$
b101 +
#655000
05
18
0A
1D
0!
03
16
0?
1B
b1000100 "
b1000100 .
0E
1$
#660000
0$
1(
b110 +
#665000
1!
0D
1;
08
12
1E
0B
19
06
b10001001 "
b10001001 .
10
1$
#670000
0$
0(
b111 +
#675000
02
15
0;
1>
0!
00
13
09
1<
b10010 "
b10010 .
0E
1$
#680000
0$
b1 H
b1000 ,
b0 +
#685000
1A
0>
18
05
1?
0<
16
b100100 "
b100100 .
03
1$
#690000
0$
b1 +
#695000
08
1;
0A
1D
06
19
0?
b1001000 "
b1001000 .
1B
1$
#700000
0$
b10 +
#705000
1!
0D
1>
0;
1E
0B
1<
b10010000 "
b10010000 .
09
1$
#710000
0$
b11 +
#715000
0>
1A
0!
0<
1?
b100000 "
b100000 .
0E
1$
#720000
0$
b100 +
#725000
1D
0A
1B
b1000000 "
b1000000 .
0?
1$
#730000
0$
b101 +
#735000
0D
1!
0B
b10000000 "
b10000000 .
1E
1$
#740000
0$
b110 +
#745000
0!
b0 "
b0 .
0E
1$
#750000
0$
1(
b111 +
#755000
12
b1 "
b1 .
10
1$
#760000
0$
0(
b1101 H
b1001 ,
b0 +
#765000
15
02
13
b10 "
b10 .
00
1$
#770000
0$
b1 +
#775000
05
18
03
b100 "
b100 .
16
1$
#780000
0$
b10 +
#785000
1;
08
19
b1000 "
b1000 .
06
1$
#790000
0$
b11 +
#795000
0;
1>
09
b10000 "
b10000 .
1<
1$
#800000
0$
1(
b100 +
#805000
1A
0>
12
1?
0<
b100001 "
b100001 .
10
1$
#810000
0$
b101 +
#815000
15
0A
1D
13
0?
b1000011 "
b1000011 .
1B
1$
#820000
0$
0(
b110 +
#825000
1!
0D
18
02
1E
0B
16
b10000110 "
b10000110 .
00
1$
#830000
0$
1(
b111 +
#835000
12
05
1;
0!
10
03
19
b1101 "
b1101 .
0E
1$
#840000
11
14
1:
1=
1@
0$
b1110110 &
b1110110 -
1%
b1010000011000010111001000110010010100110110010101110010 )
b1110110 F
b0 ,
b1000 +
#845000
1D
1A
1>
0;
15
02
1B
1?
1<
09
13
b1110110 "
b1110110 .
00
1$
#850000
0$
0%
b0 +
#855000
12
05
1;
0>
1!
10
03
19
0<
b11101101 "
b11101101 .
1E
1$
#860000
0$
b1 +
#865000
0A
1>
08
15
0?
1<
06
b11011011 "
b11011011 .
13
1$
#870000
0$
b10 +
#875000
18
0;
1A
0D
16
09
1?
b10110111 "
b10110111 .
0B
1$
#880000
0$
b11 +
#885000
0!
1D
0>
1;
0E
1B
0<
b1101111 "
b1101111 .
19
1$
#890000
0$
b100 +
#895000
1>
0A
1!
1<
0?
b11011111 "
b11011111 .
1E
1$
#900000
0$
b101 +
#905000
0D
1A
0B
b10111111 "
b10111111 .
1?
1$
#910000
0$
b110 +
#915000
1D
0!
1B
b1111111 "
b1111111 .
0E
1$
#920000
0$
b111 +
#925000
1!
b11111111 "
b11111111 .
1E
1$
#930000
1/
01
17
0@
0$
b111101 &
b111101 -
1%
b111101 F
b1 ,
b1000 +
#935000
05
0D
0!
03
0B
b111101 "
b111101 .
0E
1$
#940000
0$
0%
b0 +
#945000
1D
08
15
1B
06
b1111011 "
b1111011 .
13
1$
#950000
0$
b1 +
#955000
18
0;
1!
16
09
b11110111 "
b11110111 .
1E
1$
#960000
0$
b10 +
#965000
0>
1;
0<
b11101111 "
b11101111 .
19
1$
#970000
0$
b11 +
#975000
1>
0A
1<
b11011111 "
b11011111 .
0?
1$
#980000
0$
b100 +
#985000
0D
1A
0B
b10111111 "
b10111111 .
1?
1$
#990000
0$
b101 +
#995000
1D
0!
1B
b1111111 "
b1111111 .
0E
1$
#1000000
0$
b110 +
#1005000
1!
b11111111 "
b11111111 .
1E
1$
#1010000
0$
b111 +
#1015000
1$
#1020000
0:
1@
1C
0$
b11101101 &
b11101101 -
1%
b11101101 F
b10 ,
b1000 +
#1025000
0>
05
0<
b11101101 "
b11101101 .
03
1$
#1030000
0$
0%
b0 +
#1035000
15
08
1>
0A
13
06
1<
b11011011 "
b11011011 .
0?
1$
#1040000
0$
b1 +
#1045000
0D
1A
0;
18
0B
1?
09
b10110111 "
b10110111 .
16
1$
#1050000
0$
b10 +
#1055000
1;
0>
1D
0!
19
0<
1B
b1101111 "
b1101111 .
0E
1$
#1060000
0$
b11 +
#1065000
1!
0A
1>
1E
0?
b11011111 "
b11011111 .
1<
1$
#1070000
0$
b100 +
#1075000
1A
0D
1?
b10111111 "
b10111111 .
0B
1$
#1080000
0$
b101 +
#1085000
0!
1D
0E
b1111111 "
b1111111 .
1B
1$
#1090000
0$
b110 +
#1095000
1!
b11111111 "
b11111111 .
1E
1$
#1100000
0$
b111 +
#1105000
1$
#1110000
0/
0=
0@
0$
b10001100 &
b10001100 -
1%
b10001100 F
b11 ,
b1000 +
#1115000
02
05
0>
0A
0D
00
03
0<
0?
b10001100 "
b10001100 .
0B
1$
#1120000
0$
0%
b0 +
#1125000
0!
1>
08
12
0E
1<
06
b11001 "
b11001 .
10
1$
#1130000
0$
b1 +
#1135000
15
0;
1A
13
09
b110011 "
b110011 .
1?
1$
#1140000
0$
b10 +
#1145000
1D
0>
18
1B
0<
b1100111 "
b1100111 .
16
1$
#1150000
0$
b11 +
#1155000
1;
0A
1!
19
0?
b11001111 "
b11001111 .
1E
1$
#1160000
0$
b100 +
#1165000
0D
1>
0B
b10011111 "
b10011111 .
1<
1$
#1170000
0$
b101 +
#1175000
1A
0!
1?
b111111 "
b111111 .
0E
1$
#1180000
0$
b110 +
#1185000
1D
b1111111 "
b1111111 .
1B
1$
#1190000
0$
b111 +
#1195000
1!
b11111111 "
b11111111 .
1E
1$
#1200000
1/
04
1:
1=
1@
0$
b11111001 &
b11111001 -
1%
b11111001 F
b100 ,
b1000 +
#1205000
08
05
06
b11111001 "
b11111001 .
03
1$
#1210000
0$
0%
b0 +
#1215000
15
0;
13
b11110011 "
b11110011 .
09
1$
#1220000
0$
b1 +
#1225000
0>
18
0<
b11100111 "
b11100111 .
16
1$
#1230000
0$
b10 +
#1235000
1;
0A
19
b11001111 "
b11001111 .
0?
1$
#1240000
0$
b11 +
#1245000
0D
1>
0B
b10011111 "
b10011111 .
1<
1$
#1250000
0$
b100 +
#1255000
1A
0!
1?
b111111 "
b111111 .
0E
1$
#1260000
0$
b101 +
#1265000
1D
b1111111 "
b1111111 .
1B
1$
#1270000
0$
b110 +
#1275000
1!
b11111111 "
b11111111 .
1E
1$
#1280000
0$
b111 +
#1285000
1$
#1290000
0/
11
14
07
0:
0=
0$
b11000110 &
b11000110 -
1%
b11000110 F
b101 ,
b1000 +
#1295000
02
0;
0>
0A
00
09
0<
b11000110 "
b11000110 .
0?
1$
#1300000
0$
0%
b0 +
#1305000
0D
1;
05
12
0B
19
03
b10001101 "
b10001101 .
10
1$
#1310000
0$
b1 +
#1315000
15
08
1>
0!
13
06
1<
b11011 "
b11011 .
0E
1$
#1320000
0$
b10 +
#1325000
1A
0;
18
1?
09
b110111 "
b110111 .
16
1$
#1330000
0$
b11 +
#1335000
1;
0>
1D
19
0<
b1101111 "
b1101111 .
1B
1$
#1340000
0$
b100 +
#1345000
1!
0A
1>
1E
0?
b11011111 "
b11011111 .
1<
1$
#1350000
0$
b101 +
#1355000
1A
0D
1?
b10111111 "
b10111111 .
0B
1$
#1360000
0$
b110 +
#1365000
0!
1D
0E
b1111111 "
b1111111 .
1B
1$
#1370000
0$
b111 +
#1375000
1!
b11111111 "
b11111111 .
1E
1$
#1380000
1/
01
0$
b11000101 &
b11000101 -
1%
b11000101 F
b110 ,
b1000 +
#1385000
0A
0>
0;
05
0?
0<
09
b11000101 "
b11000101 .
03
1$
#1390000
0$
0%
b0 +
#1395000
15
08
1;
0D
13
06
19
b10001011 "
b10001011 .
0B
1$
#1400000
0$
b1 +
#1405000
0!
1>
0;
18
0E
1<
09
b10111 "
b10111 .
16
1$
#1410000
0$
b10 +
#1415000
1;
0>
1A
19
0<
b101111 "
b101111 .
1?
1$
#1420000
0$
b11 +
#1425000
1D
0A
1>
1B
0?
b1011111 "
b1011111 .
1<
1$
#1430000
0$
b100 +
#1435000
1A
0D
1!
1?
0B
b10111111 "
b10111111 .
1E
1$
#1440000
0$
b101 +
#1445000
0!
1D
0E
b1111111 "
b1111111 .
1B
1$
#1450000
0$
b110 +
#1455000
1!
b11111111 "
b11111111 .
1E
1$
#1460000
0$
b111 +
#1465000
1$
#1470000
0/
11
04
17
1=
0@
0$
b10101010 &
b10101010 -
1%
b10101010 F
b111 ,
b1000 +
#1475000
02
08
0>
0D
00
06
0<
b10101010 "
b10101010 .
0B
1$
#1480000
0$
0%
b0 +
#1485000
0!
1D
0A
1>
0;
18
05
12
0E
1B
0?
1<
09
16
03
b1010101 "
b1010101 .
10
1$
#1490000
0$
b1 +
#1495000
15
08
1;
0>
1A
0D
1!
13
06
19
0<
1?
0B
b10101011 "
b10101011 .
1E
1$
#1500000
0$
b10 +
#1505000
0!
1D
0A
1>
0;
18
0E
1B
0?
1<
09
b1010111 "
b1010111 .
16
1$
#1510000
0$
b11 +
#1515000
1;
0>
1A
0D
1!
19
0<
1?
0B
b10101111 "
b10101111 .
1E
1$
#1520000
0$
b100 +
#1525000
0!
1D
0A
1>
0E
1B
0?
b1011111 "
b1011111 .
1<
1$
#1530000
0$
b101 +
#1535000
1A
0D
1!
1?
0B
b10111111 "
b10111111 .
1E
1$
#1540000
0$
b110 +
#1545000
0!
1D
0E
b1111111 "
b1111111 .
1B
1$
#1550000
0$
b111 +
#1555000
1!
b11111111 "
b11111111 .
1E
1$
#1560000
1/
01
14
07
1@
0$
b11100101 &
b11100101 -
1%
b11100101 F
b1000 ,
b1000 +
#1565000
0>
0;
05
0<
09
b11100101 "
b11100101 .
03
1$
#1570000
0$
0%
b0 +
#1575000
15
08
1;
0A
13
06
19
b11001011 "
b11001011 .
0?
1$
#1580000
0$
b1 +
#1585000
0D
1>
0;
18
0B
1<
09
b10010111 "
b10010111 .
16
1$
#1590000
0$
b10 +
#1595000
1;
0>
1A
0!
19
0<
1?
b101111 "
b101111 .
0E
1$
#1600000
0$
b11 +
#1605000
1D
0A
1>
1B
0?
b1011111 "
b1011111 .
1<
1$
#1610000
0$
b100 +
#1615000
1A
0D
1!
1?
0B
b10111111 "
b10111111 .
1E
1$
#1620000
0$
b101 +
#1625000
0!
1D
0E
b1111111 "
b1111111 .
1B
1$
#1630000
0$
b110 +
#1635000
1!
b11111111 "
b11111111 .
1E
1$
#1640000
0$
b111 +
#1645000
1$
#1650000
11
1:
0C
0$
b1110111 &
b1110111 -
1%
b1110111 F
b1001 ,
b1000 +
#1655000
0;
0!
09
b1110111 "
b1110111 .
0E
1$
#1660000
0$
0%
b0 +
#1665000
1!
0>
1;
1E
0<
b11101111 "
b11101111 .
19
1$
#1670000
0$
b1 +
#1675000
1>
0A
1<
b11011111 "
b11011111 .
0?
1$
#1680000
0$
b10 +
#1685000
0D
1A
0B
b10111111 "
b10111111 .
1?
1$
#1690000
0$
b11 +
#1695000
1D
0!
1B
b1111111 "
b1111111 .
0E
1$
#1700000
0$
b100 +
#1705000
1!
b11111111 "
b11111111 .
1E
1$
#1710000
0$
b101 +
#1715000
1$
#1720000
0$
b110 +
#1725000
1$
#1730000
0$
b111 +
#1735000
1$
#1740000
0$
b1010 ,
b1000 +
